[
  {
    "title": "Fala, Nubank",
    "url": "blog.nubank.com.br",
    "rhash": "02e4b6fbd19b38",
  }
   {
    "title": "Figma Blog",
    "url": "figma.com/blog",
    "rhash": "b4ec941240d112",
  }
  {
    "title": "Figma Help Center",
    "url": "help.figma.com",
    "rhash": "133f4e9140fa1c",
  }
  {
    "title": "FreeCodeCamp",
    "url": "freecodecamp.org",
    "rhash": "1f336c538938f4",
  }
  {
    "title": "Blog | GitLab",
    "url": "about.gitlab.com",
    "rhash": "55dbac85672f2c",
  }
  {
    "title": "Hashnode",
    "url": "hashnode.dev",
    "rhash": "452ebf68344428",
  }
  {
    "title": "TradingView",
    "url": "tradingview.com",
    "rhash": "499c44630deaf1",
  }
  {
    "title": "W3Schools",
    "url": "w3schools.com",
    "rhash": "484134a929683c",
  }
]
